[
  {
    "name": "theme_info",
    "theme_name": "Responsive",
    "theme_author": "Out of the Sandbox",
    "theme_version": "8.0.1",
    "theme_documentation_url": "https:\/\/help.outofthesandbox.com\/",
    "theme_support_url": "https:\/\/help.outofthesandbox.com\/hc\/en-us\/requests\/new"
  },
  {
    "name": "Colors",
    "settings": [
      {
        "type": "header",
        "content": "Top bar"
      },
      {
        "type": "color",
        "id": "top_bar_bg_color",
        "label": "Top bar background",
        "default": "#222222"
      },
      {
        "type": "color",
        "id": "top_bar_color",
        "label": "Top bar links",
        "default": "#b6b6b6"
      },
      {
        "type": "color",
        "id": "top_bar_color_hover",
        "label": "Top bar links hover",
        "default": "#ffffff"
      },
      {
        "type": "header",
        "content": "Header"
      },
      {
        "type": "color",
        "id": "logo_color",
        "label": "Logo text",
        "default": "#404040"
      },
      {
        "type": "color",
        "id": "nav_color",
        "label": "Main menu",
        "default": "#777777"
      },
      {
        "type": "color",
        "id": "nav_color_active",
        "label": "Main menu highlight",
        "default": "#404040"
      },
      {
        "type": "color",
        "id": "nav_color_hover",
        "label": "Main menu hover",
        "default": "#dd4b39"
      },
      {
        "type": "color",
        "id": "header_social_icons_color",
        "label": "Social media icons",
        "default": "#404040"
      },
      {
        "type": "color",
        "id": "header_social_icons_color_hover",
        "label": "Social media icons hover",
        "default": "#dd4b39"
      },
      {
        "type": "color",
        "id": "dropdown_background_color",
        "label": "Drop-down menu background",
        "default": "#ffffff"
      },
      {
        "type": "checkbox",
        "id": "dropdown_transparency",
        "label": "Enable drop-down menu transparency"
      },
      {
        "type": "header",
        "content": "General"
      },
      {
        "type": "color",
        "id": "regular_color",
        "label": "Body text",
        "default": "#404040"
      },
      {
        "type": "color",
        "id": "headline_color",
        "label": "Headings",
        "default": "#404040"
      },
      {
        "type": "color",
        "id": "banner_color",
        "label": "Banner headings",
        "default": "#ffffff"
      },
      {
        "type": "color",
        "id": "link_color",
        "label": "Links",
        "default": "#333333"
      },
      {
        "type": "color",
        "id": "link_hover_color",
        "label": "Links hover",
        "default": "#000000"
      },
      {
        "type": "color",
        "id": "sale_price_color",
        "label": "Sale price",
        "default": "#AE3333"
      },
      {
        "type": "color",
        "id": "was_price_color",
        "label": "Compare at price",
        "default": "#AE3333"
      },
      {
        "type": "header",
        "content": "Background"
      },
      {
        "type": "color",
        "id": "shop_bg_color",
        "label": "Background",
        "default": "#ffffff"
      },
      {
        "type": "image_picker",
        "id": "custom_bg",
        "label": "Background image",
        "info": "1800 x 1000px recommended"
      },
      {
        "type": "select",
        "id": "repeat_bg",
        "label": "Repeat background",
        "default": "repeat",
        "options": [
          {
            "value": "no-repeat",
            "label": "None"
          },
          {
            "value": "repeat-x",
            "label": "Horizontally"
          },
          {
            "value": "repeat-y",
            "label": "Vertically"
          },
          {
            "value": "repeat",
            "label": "Both"
          }
        ]
      },
      {
        "type": "checkbox",
        "id": "bg_fixed",
        "label": "Fixed background position",
        "default": false
      },
      {
        "type": "checkbox",
        "id": "bg_stretched",
        "label": "Stretch background to fill screen",
        "default": false
      },
      {
        "type": "header",
        "content": "Layout"
      },
      {
        "type": "checkbox",
        "id": "table_styles_enabled",
        "label": "Show styled tables",
        "info": "This will add borders and padding to your tables",
        "default": false
      },
      {
        "type": "color",
        "id": "border_color",
        "label": "Borders",
        "default": "#d3d3d3"
      },
      {
        "type": "header",
        "content": "Buttons"
      },
      {
        "type": "color",
        "id": "btn_color",
        "label": "Buttons",
        "default": "#000000"
      },
      {
        "type": "color",
        "id": "btn_hover_color",
        "label": "Buttons hover",
        "default": "#AE3333"
      },
      {
        "type": "color",
        "id": "btn_txt_color",
        "label": "Button label color",
        "default": "#FFFFFF"
      },
      {
        "type": "header",
        "content": "Stickers"
      },
      {
        "type": "color",
        "id": "sale_color",
        "label": "Sale",
        "default": "#AE3333"
      },
      {
        "type": "color",
        "id": "new_banner_color",
        "label": "New, pre-order, and coming soon",
        "default": "#AE3333"
      },
      {
        "type": "header",
        "content": "Quick shop"
      },
      {
        "type": "color",
        "id": "modal_background_color",
        "label": "Background",
        "default": "#FFFFFF"
      },
      {
        "type": "color",
        "id": "quick_shop_button_color",
        "label": "Button",
        "default": "#888888"
      },
      {
        "type": "color",
        "id": "quick_shop_button_hover_color",
        "label": "Button hover",
        "default": "#000000"
      },
      {
        "type": "color",
        "id": "quick_shop_text_color",
        "label": "Button label",
        "default": "#ffffff"
      },
      {
        "type": "header",
        "content": "Newsletter popup"
      },
      {
        "type": "color",
        "id": "newsletter_popup_color",
        "label": "Popup text",
        "default": "#404040"
      },
      {
        "type": "color",
        "id": "newsletter_popup_background_color",
        "label": "Popup background",
        "default": "#ffffff"
      },
      {
        "type": "header",
        "content": "Footer"
      },
      {
        "type": "color",
        "id": "footer_border_color",
        "label": "Border",
        "default": "#222222"
      },
      {
        "type": "color",
        "id": "footer_text_color",
        "label": "Text",
        "default": "#888888"
      },
      {
        "type": "color",
        "id": "headline_footer_text_color",
        "label": "Headings",
        "default": "#ffffff"
      },
      {
        "type": "color",
        "id": "footer_link_color",
        "label": "Links",
        "default": "#AE3333"
      },
      {
        "type": "color",
        "id": "footer_link_color_hover",
        "label": "Links hover",
        "default": "#AE3333"
      },
      {
        "type": "color",
        "id": "footer_button",
        "label": "Buttons",
        "default": "#AE3333"
      },
      {
        "type": "color",
        "id": "footer_button_hover",
        "label": "Buttons hover",
        "default": "#AE3333"
      },
      {
        "type": "color",
        "id": "social_icons_color",
        "label": "Social media icons",
        "default": "#AE3333"
      },
      {
        "type": "color",
        "id": "social_icons_color_hover",
        "label": "Social media icons hover",
        "default": "#AE3333"
      },
      {
        "type": "color",
        "id": "footer_color",
        "label": "Background",
        "default": "#222222"
      },
      {
        "type": "header",
        "content": "Password page"
      },
      {
        "type": "color",
        "id": "password_page_text_color",
        "label": "Regular text",
        "default": "#ffffff"
      },
      {
        "type": "color",
        "id": "password_page_background_color",
        "label": "Background",
        "default": "#000000"
      },
      {
        "type": "color",
        "id": "password_page_footer_text_color",
        "label": "Footer text",
        "default": "#666666"
      },
      {
        "type": "color",
        "id": "password_page_footer_link_color",
        "label": "Footer links",
        "default": "#9c9c9c"
      }
    ]
  },
  {
    "name": "Typography",
    "settings": [
      {
        "type": "header",
        "content": "Logo"
      },
      {
        "type": "font_picker",
        "id": "logo__font",
        "label": "Font",
        "default": "open_sans_n4"
      },
      {
        "type": "select",
        "id": "logo_font_style",
        "label": "Capitalization",
        "default": "none",
        "options": [
          {
            "value": "none",
            "label": "None"
          },
          {
            "value": "uppercase",
            "label": "Uppercase"
          },
          {
            "value": "lowercase",
            "label": "Lowercase"
          }
        ]
      },
      {
        "type": "range",
        "id": "logo_font_size",
        "label": "Base size",
        "min": 20,
        "max": 60,
        "default": 42,
        "unit": "px"
      },
      {
        "type": "header",
        "content": "Headings"
      },
      {
        "type": "font_picker",
        "id": "headline__font",
        "label": "Font",
        "default": "open_sans_n4"
      },
      {
        "type": "select",
        "id": "headline_font_style",
        "label": "Capitalization",
        "default": "none",
        "options": [
          {
            "value": "none",
            "label": "None"
          },
          {
            "value": "uppercase",
            "label": "Uppercase"
          },
          {
            "value": "lowercase",
            "label": "Lowercase"
          }
        ]
      },
      {
        "type": "select",
        "id": "headline_alignment",
        "label": "Font alignment",
        "default": "center",
        "options": [
          {
            "value": "center",
            "label": "Center"
          },
          {
            "value": "left",
            "label": "Left"
          }
        ]
      },
      {
        "type": "range",
        "id": "headline_font_size",
        "label": "Base size",
        "min": 20,
        "max": 60,
        "default": 34,
        "unit": "px"
      },
      {
        "type": "range",
        "id": "headline_letter_spacing",
        "label": "Letter spacing",
        "min": 0,
        "max": 6,
        "default": 0,
        "unit": "px"
      },
      {
        "type": "header",
        "content": "Main menu"
      },
      {
        "type": "font_picker",
        "id": "nav__font",
        "label": "Font",
        "default": "open_sans_n4"
      },
      {
        "type": "select",
        "id": "nav_font_style",
        "label": "Capitalization",
        "default": "none",
        "options": [
          {
            "value": "none",
            "label": "None"
          },
          {
            "value": "uppercase",
            "label": "Uppercase"
          },
          {
            "value": "lowercase",
            "label": "Lowercase"
          }
        ]
      },
      {
        "type": "range",
        "id": "nav_font_size",
        "label": "Base size",
        "min": 12,
        "max": 20,
        "default": 15,
        "unit": "px"
      },
      {
        "type": "range",
        "id": "nav_letter_spacing",
        "label": "Letter spacing",
        "min": 0,
        "max": 6,
        "default": 0,
        "unit": "px"
      },
      {
        "type": "select",
        "id": "nav_dropdown_weight",
        "label": "Drop-down menu font weight",
        "default": "normal",
        "options": [
          {
            "value": "lighter",
            "label": "Light"
          },
          {
            "value": "normal",
            "label": "Regular"
          },
          {
            "value": "bold",
            "label": "Bold"
          }
        ]
      },
      {
        "type": "select",
        "id": "nav_dropdown_font_style",
        "label": "Drop-down menu capitalization",
        "default": "none",
        "options": [
          {
            "value": "none",
            "label": "None"
          },
          {
            "value": "uppercase",
            "label": "Uppercase"
          },
          {
            "value": "lowercase",
            "label": "Lowercase"
          }
        ]
      },
      {
        "type": "range",
        "id": "nav_dropdown_font_size",
        "label": "Drop-down menu font size",
        "min": 12,
        "max": 20,
        "default": 15,
        "unit": "px"
      },
      {
        "type": "header",
        "content": "Top bar and buttons"
      },
      {
        "type": "font_picker",
        "id": "top_bar__font",
        "label": "Font",
        "default": "open_sans_n4"
      },
      {
        "type": "select",
        "id": "top_bar_font_style",
        "label": "Capitalization",
        "default": "none",
        "options": [
          {
            "value": "none",
            "label": "None"
          },
          {
            "value": "uppercase",
            "label": "Uppercase"
          },
          {
            "value": "lowercase",
            "label": "Lowercase"
          }
        ]
      },
      {
        "type": "range",
        "id": "top_bar_font_size",
        "label": "Base size",
        "min": 10,
        "max": 20,
        "default": 12,
        "unit": "px"
      },
      {
        "type": "range",
        "id": "top_bar_letter_spacing",
        "label": "Letter spacing",
        "min": 0,
        "max": 6,
        "default": 0,
        "unit": "px"
      },
      {
        "type": "checkbox",
        "id": "display_text_shadow",
        "label": "Top bar shadow"
      },
      {
        "type": "header",
        "content": "Body text"
      },
      {
        "type": "font_picker",
        "id": "regular__font",
        "label": "Font",
        "default": "open_sans_n4"
      },
      {
        "type": "select",
        "id": "regular_font_style",
        "label": "Capitalization",
        "default": "none",
        "options": [
          {
            "value": "none",
            "label": "None"
          },
          {
            "value": "uppercase",
            "label": "Uppercase"
          },
          {
            "value": "lowercase",
            "label": "Lowercase"
          }
        ]
      },
      {
        "type": "range",
        "id": "regular_font_size",
        "label": "Base size",
        "min": 12,
        "max": 20,
        "default": 14,
        "unit": "px"
      },
      {
        "type": "range",
        "id": "footer_font_size",
        "label": "Footer font size",
        "min": 12,
        "max": 20,
        "default": 14,
        "unit": "px"
      },
      {
        "type": "header",
        "content": "Banner headings"
      },
      {
        "type": "font_picker",
        "id": "slideshow_headline__font",
        "label": "Font",
        "default": "open_sans_n4"
      },
      {
        "type": "range",
        "id": "slideshow_headline_size",
        "label": "Base size",
        "min": 20,
        "max": 60,
        "default": 42,
        "unit": "px"
      },
      {
        "type": "header",
        "content": "Banner subheadings"
      },
      {
        "type": "font_picker",
        "id": "slideshow_subtitle__font",
        "label": "Font",
        "default": "open_sans_n4"
      },
      {
        "type": "select",
        "id": "slideshow_subtitle_font_style",
        "label": "Capitalization",
        "options": [
          {
            "value": "none",
            "label": "None"
          },
          {
            "value": "uppercase",
            "label": "Uppercase"
          },
          {
            "value": "lowercase",
            "label": "Lowercase"
          }
        ],
        "default": "none"
      },
      {
        "type": "range",
        "id": "slideshow_subtitle_size",
        "label": "Base size",
        "min": 16,
        "max": 60,
        "default": 20,
        "unit": "px"
      }
    ]
  },
  {
    "name": "Products",
    "settings": [
      {
        "type": "header",
        "content": "Product cards"
      },
      {
        "type": "checkbox",
        "id": "align_height",
        "label": "Align height of product media",
        "default": false
      },
      {
        "type": "range",
        "id": "collection_height",
        "label": "Product media height",
        "min": 150,
        "max": 400,
        "step": 10,
        "default": 200,
        "unit": "px"
      },
      {
        "type": "select",
        "id": "collection_price_position",
        "label": "Product price alignment",
        "default": "right",
        "options": [
          {
            "value": "left",
            "label": "Below-left"
          },
          {
            "value": "center",
            "label": "Below-center"
          },
          {
            "value": "right",
            "label": "Beside"
          }
        ]
      },
      {
        "type": "select",
        "id": "mobile_products_per_row",
        "label": "Products per row on mobile",
        "default": "2",
        "options": [
          {
            "value": "1",
            "label": "1"
          },
          {
            "value": "2",
            "label": "2"
          }
        ]
      },
      {
        "type": "checkbox",
        "id": "collection_border",
        "label": "Show border under products",
        "default": true
      },
      {
        "type": "checkbox",
        "id": "collection_secondary_image",
        "label": "Show secondary media on hover",
        "info": "Desktop only",
        "default": false
      },
      {
        "type": "checkbox",
        "id": "display_vendor_collection",
        "label": "Show vendor",
        "default": false
      },
      {
        "type": "checkbox",
        "id": "sale_banner_enabled",
        "label": "Show product stickers",
        "default": false
      },
      {
        "type": "checkbox",
        "id": "collection_swatches",
        "label": "Show color swatches",
        "info": "[Learn more](https:\/\/help.outofthesandbox.com\/hc\/en-us\/articles\/115006911447-Enabling-Color-Swatches-for-Products)",
        "default": false
      },
      {
        "type": "header",
        "content": "Product form"
      },
      {
        "type": "checkbox",
        "id": "display_product_quantity",
        "label": "Show quantity box",
        "default": false
      },
      {
        "type": "checkbox",
        "id": "limit_quantity",
        "label": "Limit quantity to available inventory",
        "default": false
      },
      {
        "type": "checkbox",
        "id": "display_inventory_left",
        "label": "Show inventory remaining",
        "default": false
      },
      {
        "type": "range",
        "id": "inventory_threshold",
        "label": "Inventory remaining threshold",
        "min": 2,
        "max": 40,
        "default": 10,
        "info": "Inventory remaining will only appear if under the threshold amount."
      },
      {
        "type": "radio",
        "id": "product_form_style",
        "label": "Options style",
        "info": "[Learn more](https:\/\/help.outofthesandbox.com\/hc\/en-us\/articles\/115006911447-Enabling-Color-Swatches-for-Products)",
        "default": "dropdown",
        "options": [
          {
            "value": "dropdown",
            "label": "Select drop-down list"
          },
          {
            "value": "swatches",
            "label": "Color swatches"
          }
        ]
      },
      {
        "type": "text",
        "id": "free_price_text",
        "label": "\"Free\" text (for $0 products)",
        "default": "Free"
      },
      {
        "type": "header",
        "content": "Dynamic checkout button"
      },
      {
        "type": "checkbox",
        "id": "show_payment_button",
        "label": "Show dynamic checkout button",
        "default": true,
        "info": "Each customer will see their preferred payment method from those available on your store, such as PayPal or Apple Pay. [Learn more](https:\/\/help.shopify.com\/manual\/using-themes\/change-the-layout\/dynamic-checkout)"
      },
      {
        "type": "header",
        "content": "Back in stock form"
      },
      {
        "type": "paragraph",
        "content": "Let customers signup to be notified when a sold out product becomes available. [Learn more](https:\/\/help.outofthesandbox.com\/hc\/en-us\/articles\/115013035567-How-does-the-back-in-stock-notification-form-work-)."
      },
      {
        "type": "checkbox",
        "id": "notify_me_form",
        "label": "Enable \"Back in stock request\" form",
        "default": false
      },
      {
        "type": "richtext",
        "id": "notify_me_richtext",
        "label": "Text",
        "default": "<p>Notify me when this product is available:<\/p>"
      },
      {
        "type": "header",
        "content": "Product reviews"
      },
      {
        "type": "paragraph",
        "content": "Before enabling reviews you will need to install the free [Shopify Product Reviews](https:\/\/apps.shopify.com\/product-reviews) app."
      },
      {
        "type": "checkbox",
        "id": "enable_shopify_review_comments",
        "label": "Enable product reviews and ratings",
        "default": false
      },
      {
        "type": "radio",
        "id": "review_position",
        "label": "Reviews position",
        "default": "bottom",
        "options": [
          {
            "value": "top",
            "label": "Inside product form"
          },
          {
            "value": "bottom",
            "label": "Below product form"
          }
        ]
      },
      {
        "type": "checkbox",
        "id": "enable_shopify_collection_badges",
        "label": "Display star rating on product cards",
        "default": false
      },
      {
        "type": "checkbox",
        "id": "enable_shopify_product_badges",
        "label": "Display star rating on product page",
        "info": "Positioned below the product title",
        "default": false
      }
    ]
  },
  {
    "name": "Quick shop",
    "settings": [
      {
        "type": "checkbox",
        "id": "quick_shop_enabled",
        "label": "Enable quick shop",
        "default": false
      }
    ]
  },
  {
    "name": "Popup",
    "settings": [
      {
        "type": "paragraph",
        "content": "To test this feature, set the number of days until the popup is displayed again to test mode."
      },
      {
        "type": "checkbox",
        "id": "newsletter_popup",
        "label": "Enable popup",
        "default": false
      },
      {
        "type": "checkbox",
        "id": "newsletter_popup_mobile",
        "label": "Show popup on mobile",
        "default": true
      },
      {
        "type": "text",
        "id": "newsletter_popup_title",
        "label": "Heading",
        "default": "You can use this popup for more than just exciting email sign-ups!"
      },
      {
        "type": "image_picker",
        "id": "newsletter_popup_image",
        "label": "Image"
      },
      {
        "type": "select",
        "id": "popup_image_position",
        "label": "Image position",
        "info": "350 x 550px recommended",
        "default": "left",
        "options": [
          {
            "value": "left",
            "label": "Left"
          },
          {
            "value": "right",
            "label": "Right"
          }
        ]
      },
      {
        "type": "richtext",
        "id": "newsletter_popup_text",
        "label": "Text",
        "default": "<p>Attracting new email subscriptions is a great use for a popup, but you can also use it for other purposes, like an 'agree-to-terms' entry point, or to link directly to pages and products in your shop.<\/p>"
      },
      {
        "type": "range",
        "id": "newsletter_popup_max_width",
        "label": "Width",
        "min": 460,
        "max": 800,
        "step": 20,
        "default": 600
      },
      {
        "type": "range",
        "id": "newsletter_popup_seconds",
        "label": "Popup delay",
        "min": 0,
        "max": 120,
        "step": 2,
        "default": 8,
        "unit": "sec"
      },
      {
        "type": "select",
        "id": "newsletter_popup_days",
        "label": "Days until popup is displayed again",
        "default": "2",
        "options": [
          {
            "value": "0",
            "label": "Test Mode"
          },
          {
            "value": "2",
            "label": "2 days"
          },
          {
            "value": "7",
            "label": "7 days"
          },
          {
            "value": "14",
            "label": "14 days"
          },
          {
            "value": "30",
            "label": "30 days"
          },
          {
            "value": "90",
            "label": "90 days"
          },
          {
            "value": "365",
            "label": "365 days"
          }
        ]
      },
      {
        "type": "header",
        "content": "Newsletter"
      },
      {
        "type": "checkbox",
        "id": "newsletter_popup_form",
        "label": "Show newsletter",
        "default": true
      },
      {
        "type": "checkbox",
        "id": "display_first_name",
        "label": "Show first name",
        "default": true
      },
      {
        "type": "checkbox",
        "id": "display_last_name",
        "label": "Show last name",
        "default": true
      }
    ]
  },
  {
    "name": "Social media",
    "settings": [
      {
        "type": "checkbox",
        "id": "rounded_social_icons",
        "label": "Show circle around icons",
        "default": true
      },
      {
        "type": "text",
        "id": "twitter_link",
        "label": "Twitter link",
        "info": "https:\/\/twitter.com\/shopify"
      },
      {
        "type": "text",
        "id": "facebook_link",
        "label": "Facebook link",
        "info": "https:\/\/facebook.com\/shopify"
      },
      {
        "type": "text",
        "id": "google_link",
        "label": "Google+ link",
        "info": "https:\/\/plus.google.com\/+shopify"
      },
      {
        "type": "text",
        "id": "youtube_link",
        "label": "YouTube link",
        "info": "https:\/\/youtube.com\/user\/shopify"
      },
      {
        "type": "text",
        "id": "vimeo_link",
        "label": "Vimeo link",
        "info": "https:\/\/vimeo.com\/shopify"
      },
      {
        "type": "text",
        "id": "pinterest_link",
        "label": "Pinterest link",
        "info": "https:\/\/pinterest.com\/shopify"
      },
      {
        "type": "text",
        "id": "tumblr_link",
        "label": "Tumblr link",
        "info": "https:\/\/shopify.tumblr.com\/"
      },
      {
        "type": "text",
        "id": "instagram_link",
        "label": "Instagram link",
        "info": "https:\/\/instagram.com\/shopify"
      },
      {
        "type": "text",
        "id": "linkedin_link",
        "label": "LinkedIn link",
        "info": "https:\/\/linkedin.com\/company\/shopify"
      },
      {
        "type": "text",
        "id": "flickr_link",
        "label": "Flickr link",
        "info": "https:\/\/flickr.com\/photos\/shopify"
      },
      {
        "type": "text",
        "id": "email_link",
        "label": "Email address"
      }
    ]
  },
  {
    "name": "DISQUS comments",
    "settings": [
      {
        "type": "checkbox",
        "id": "disqus_enabled",
        "label": "Enable [DISQUS](http:\/\/disqus.com\/) comments",
        "info": "Replaces Shopify's default comments",
        "default": false
      },
      {
        "type": "text",
        "id": "disqus_shortname",
        "label": "[DISQUS](http:\/\/help.disqus.com\/en\/articles\/1717111-what-s-a-shortname\/) shortname"
      }
    ]
  },
  {
    "name": "Cart",
    "settings": [
      {
        "type": "select",
        "id": "cart_action",
        "label": "Cart type",
        "default": "ajax",
        "options": [
          {
            "value": "ajax",
            "label": "Popup"
          },
          {
            "value": "reload_page",
            "label": "Refresh"
          },
          {
            "value": "redirect_cart",
            "label": "Page"
          },
          {
            "value": "redirect_checkout",
            "label": "Checkout"
          }
        ]
      },
      {
        "type": "header",
        "content": "Agree to terms"
      },
      {
        "type": "paragraph",
        "content": "If the dynamic payment button is enabled, customers will be able to bypass these terms. [Learn more](https:\/\/help.shopify.com\/en\/manual\/sell-online\/online-store\/dynamic-checkout)"
      },
      {
        "type": "checkbox",
        "id": "display_tos_checkbox",
        "label": "Show checkbox",
        "default": false
      },
      {
        "type": "richtext",
        "id": "tos_richtext",
        "label": "Text",
        "default": "<p>I Agree with the Terms & Conditions<\/p>"
      },
      {
        "type": "header",
        "content": "Shipping rates calculator"
      },
      {
        "type": "checkbox",
        "id": "show_shipping_calculator",
        "label": "Enable shipping rates calculator",
        "default": false
      },
      {
        "type": "text",
        "id": "shipping_calculator_default_country",
        "label": "Shipping calculator default country selection",
        "default": "United States"
      },
      {
        "type": "paragraph",
        "content": "If your customer is logged-in, the country in their default shipping address will be selected. If you are not sure about the spelling to use above, refer to your first checkout page."
      }
    ]
  },
  {
    "name": "Currency",
    "settings": [
      {
        "type": "select",
        "id": "currency_format",
        "label": "Format",
        "default": "money_with_currency_format",
        "options": [
          {
            "value": "money_format",
            "label": "Without currency ($10.00)"
          },
          {
            "value": "money_with_currency_format",
            "label": "With currency ($10.00 CAD)"
          }
        ]
      }
    ]
  },
  {
    "name": "Search",
    "settings": [
      {
        "type": "select",
        "id": "search_option",
        "label": "Search results",
        "default": "product",
        "options": [
          {
            "value": "product",
            "label": "Products"
          },
          {
            "value": "product,page,article",
            "label": "Everything"
          }
        ]
      },
      {
        "type": "header",
        "content": "Predictive search"
      },
      {
        "type": "checkbox",
        "id": "enable_autocomplete",
        "label": "Enable",
        "default": true
      },
      {
        "type": "range",
        "id": "search_to_display",
        "label": "Items to display",
        "min": 2,
        "max": 10,
        "default": 5
      }
    ]
  },
  {
    "name": "SEO",
    "settings": [
      {
        "type": "image_picker",
        "id": "organization_logo",
        "label": "Organization logo",
        "info": "[Learn more](https:\/\/developers.google.com\/search\/docs\/data-types\/logo)"
      }
    ]
  },
  {
    "name": "Favicon",
    "settings": [
      {
        "type": "image_picker",
        "id": "favicon",
        "label": "Favicon",
        "info": "32 x 32px .png required"
      }
    ]
  }
]