{
  "presets": {
    "London": {
      "logo_color": "#4b4f54",
      "regular_color": "#4b4f54",
      "headline_color": "#1f2022",
      "banner_color": "#ffffff",
      "headline_footer_text_color": "#ffffff",
      "footer_text_color": "#ffffff",
      "sale_price_color": "#6a629c",
      "was_price_color": "#9d9ba9",
      "newsletter_popup_color": "#ffffff",
      "link_color": "#ab7d07",
      "link_hover_color": "#d29800",
      "nav_color": "#000000",
      "nav_color_active": "#ab7d07",
      "nav_color_hover": "#d29800",
      "top_bar_color": "#ffffff",
      "top_bar_color_hover": "#000000",
      "footer_link_color": "#ffffff",
      "footer_link_color_hover": "#d29800",
      "btn_color": "#423f54",
      "btn_hover_color": "#57536d",
      "footer_button": "#ab7d07",
      "footer_button_hover": "#d29800",
      "btn_txt_color": "#ffffff",
      "table_styles_enabled": false,
      "border_color": "#c2c1cc",
      "footer_border_color": "rgba(0,0,0,0)",
      "sale_color": "#57536d",
      "new_banner_color": "#000000",
      "header_social_icons_color": "#404040",
      "header_social_icons_color_hover": "#ab7d07",
      "social_icons_color": "#ffffff",
      "social_icons_color_hover": "#9d9ba9",
      "shop_bg_color": "#ffffff",
      "dropdown_background_color": "#f7f7f7",
      "dropdown_transparency": false,
      "custom_bg": "",
      "repeat_bg": "repeat",
      "bg_fixed": false,
      "bg_stretched": true,
      "top_bar_bg_color": "#6a6671",
      "footer_color": "#2d2b35",
      "newsletter_popup_background_color": "#ffffff",
      "modal_background_color": "#f7f7f7",
      "quick_shop_button_color": "#ab7d07",
      "quick_shop_button_hover_color": "#d29800",
      "quick_shop_text_color": "#ffffff",
      "password_page_text_color": "#ffffff",
      "password_page_background_color": "#000000",
      "password_page_footer_text_color": "#666666",
      "password_page_footer_link_color": "#9c9c9c",
      "logo__font": "ff_unit_n4",
      "logo_font_style": "none",
      "logo_font_size": 28,
      "headline__font": "ff_unit_n4",
      "headline_font_style": "uppercase",
      "headline_alignment": "center",
      "headline_font_size": 22,
      "headline_letter_spacing": 4,
      "nav__font": "inconsolata_n4",
      "nav_font_style": "uppercase",
      "nav_font_size": 13,
      "nav_letter_spacing": 3,
      "nav_dropdown_weight": "normal",
      "nav_dropdown_font_style": "none",
      "nav_dropdown_font_size": 14,
      "top_bar__font": "inconsolata_n7",
      "top_bar_font_style": "uppercase",
      "top_bar_font_size": 12,
      "top_bar_letter_spacing": 2,
      "display_text_shadow": false,
      "regular__font": "inconsolata_n4",
      "regular_font_style": "none",
      "regular_font_size": 15,
      "footer_font_size": 14,
      "slideshow_headline__font": "ff_unit_n4",
      "slideshow_headline_size": 42,
      "slideshow_subtitle__font": "inconsolata_n4",
      "slideshow_subtitle_font_style": "none",
      "slideshow_subtitle_size": 18,
      "display_social_buttons": true,
      "header_social_icons": true,
      "enable_social_links": true,
      "rounded_social_icons": false,
      "twitter_link": "",
      "facebook_link": "",
      "youtube_link": "",
      "vimeo_link": "",
      "pinterest_link": "",
      "tumblr_link": "",
      "instagram_link": "",
      "linkedin_link": "",
      "flickr_link": "",
      "email_link": "",
      "disqus_enabled": false,
      "disqus_shortname": "",
      "mobile_products_per_row": "1",
      "align_height": false,
      "collection_height": 200,
      "collection_price_position": "center",
      "collection_border": false,
      "collection_secondary_image": true,
      "display_vendor_collection": false,
      "sale_banner_enabled": true,
      "collection_swatches": false,
      "display_product_quantity": true,
      "limit_quantity": false,
      "display_inventory_left": true,
      "notify_me_form": true,
      "notify_me_richtext": "<p>Notify me when this product is available:<\/p>",
      "product_form_style": "swatches",
      "free_price_text": "Free",
      "size_chart": "size-guide",
      "product_slideshow_animation": "zoom",
      "slideshow_speed": 6,
      "thumbnail_position": "left-thumbnails",
      "quick_shop_enabled": true,
      "product_description_position": "top",
      "description_words": "20",
      "show_payment_button": true,
      "enable_shopify_review_comments": true,
      "review_position": "bottom",
      "enable_shopify_collection_badges": false,
      "enable_shopify_product_badges": true,
      "cart_action": "ajax",
      "show_shipping_calculator": true,
      "shipping_calculator_default_country": "United States",
      "currency_format": "money_format",
      "search_option": "product",
      "favicon": "",
      "checkout_header_image": "shopify:\/\/shop_images\/banner-hail2.jpg",
      "checkout_logo_image": "shopify:\/\/shop_images\/london-logo-white.png",
      "checkout_logo_position": "right",
      "checkout_logo_size": "medium",
      "checkout_body_background_image": "",
      "checkout_body_background_color": "#fafafa",
      "checkout_input_background_color_mode": "white",
      "checkout_sidebar_background_image": "",
      "checkout_sidebar_background_color": "#ffffff",
      "checkout_heading_font": "Helvetica Neue",
      "checkout_body_font": "Helvetica Neue",
      "checkout_accent_color": "#d29800",
      "checkout_button_color": "#423f54",
      "checkout_error_color": "#cd297c",
      "newsletter_bg": "",
      "newsletter_bg_stretched": false,
      "newsletter_popup_link": "",
      "use_logo": false,
      "logo_width": "360",
      "logo_alignment": "center",
      "main_linklist": "main-menu",
      "menu_alignment": "center",
      "nav_border": "double",
      "nav_separator": "solid",
      "featured_content_page": "",
      "secondary_btn_color": "#f2f2f2",
      "use_custom_bg_image": false,
      "custom_bg_image_select": "custom_bg.png",
      "use_custom_top_bar_image": false,
      "custom_top_bar_image_select": "custom_top_bar.png",
      "use_newsletter_bg_image": false,
      "search_box_top_bar": true,
      "fix_top_bar": true,
      "top_bar_linklist": "",
      "slideshow_enabled": true,
      "slideshow_animation": "fade",
      "slideshow_stretch": true,
      "slideshow_width_narrow": false,
      "slideshow_headline_weight": "normal",
      "video_embed": "",
      "video_width": "set",
      "video_width_px": "",
      "video_position": "1",
      "slideshow_1_enabled": true,
      "image_1_alt_text": "The Responsive Shopify Theme",
      "image_1_headline": "The Responsive Shopify Theme",
      "image_1_subtitle": "",
      "image_1_text_color": "#ffffff",
      "image_1_text_align": "center",
      "image_1_button_text": "",
      "image_1_link": "",
      "slideshow_2_enabled": true,
      "image_2_text_color": "#ffffff",
      "image_2_text_align": "center",
      "image_2_button_text": "",
      "image_2_link": "",
      "slideshow_3_enabled": false,
      "image_3_alt_text": "",
      "image_3_headline": "",
      "image_3_subtitle": "",
      "image_3_text_color": "#ffffff",
      "image_3_text_align": "center",
      "image_3_button_text": "",
      "image_3_link": "",
      "slideshow_4_enabled": false,
      "image_4_alt_text": "",
      "image_4_headline": "",
      "image_4_subtitle": "",
      "image_4_text_color": "#ffffff",
      "image_4_text_align": "center",
      "image_4_button_text": "",
      "image_4_link": "",
      "slideshow_5_enabled": false,
      "image_5_alt_text": "",
      "image_5_headline": "",
      "image_5_subtitle": "",
      "image_5_text_color": "#ffffff",
      "image_5_text_align": "center",
      "image_5_button_text": "",
      "image_5_link": "",
      "slideshow_6_enabled": false,
      "image_6_alt_text": "",
      "image_6_headline": "",
      "image_6_subtitle": "",
      "image_6_text_color": "#ffffff",
      "image_6_text_align": "center",
      "image_6_button_text": "",
      "image_6_link": "",
      "banner_1_enabled": false,
      "banner_1_text_color": "#ffffff",
      "banner_1_text_align": "center",
      "banner_2_enabled": false,
      "banner_2_text_color": "#ffffff",
      "banner_2_text_align": "center",
      "banner_3_enabled": false,
      "banner_3_text_color": "#ffffff",
      "banner_3_text_align": "center",
      "homepage": "",
      "homepage2": "",
      "homepage3": "",
      "homepage4": "",
      "frontpage_collections_per_row": "3",
      "frontpage_collections_title": true,
      "collection_title": true,
      "frontpage_collection": "",
      "frontpage_products_per_row": "4",
      "frontpage_display_description": true,
      "frontpage_product_stagger": false,
      "blog_widget_select": "",
      "home_page_articles": "3",
      "product_breadcrumb": true,
      "display_tags": true,
      "display_type": true,
      "display_vendor": true,
      "display_collections": false,
      "display_sku": false,
      "show_product_recommendations": true,
      "product_thumbs": true,
      "product_images_position": "left",
      "products_per_row": "3",
      "pagination_limit": "48",
      "collection_breadcrumb": true,
      "faceted_filters": true,
      "collection_sort": true,
      "quick_shop_full_description": false,
      "collection_sidebar": false,
      "collection_sidebar_linklist": "",
      "collection_sidebar_linklist2": "",
      "filter_by_category": false,
      "filter_by_tag": false,
      "collection_sidebar_products": false,
      "collection_sidebar_vendors": false,
      "collection_sidebar_page": "",
      "tax_included": false,
      "display_special_instructions": false,
      "display_tos_checkbox": false,
      "display_social_buttons_blog": true,
      "blog_tags": true,
      "blog_content_page": "",
      "newsletter_enabled": true,
      "newsletter_system": "shopify",
      "mailchimp_link": "",
      "footer_linklist_2": "footer",
      "footer_linklist_1": "main-menu",
      "copyright_text": "",
      "use_paypal": false,
      "use_bitcoin": false,
      "use_visa": false,
      "use_visaelectron": false,
      "use_mastercard": false,
      "use_amex": false,
      "use_cirrus": false,
      "use_delta": false,
      "use_discover": false,
      "use_western_union": false,
      "newsletter_popup_page": "",
      "checkout_use_header_image": false,
      "checkout_banner_background_color": "#222222",
      "checkout_logo": "",
      "checkout_headline": "",
      "checkout_call_to_action_color": "#DD4B39",
      "shop_use_content_bg_color": "1",
      "shop_content_bg_color": "#bb3131",
      "blog_widget": true,
      "checkout_background_color": "#ffffff",
      "checkout_background_image": false,
      "checkout_text_color": "#404040",
      "checkout_headline_color": "#404040",
      "collection_top_sidebar_page": "",
      "newsletter_success_text": "Thank you for joining our mailing list!",
      "newsletter_description": "Subscribe to our newsletter and always be the first to hear about what is happening.",
      "display_borders": true,
      "header_share_button": false,
      "product_zoom_enabled": false,
      "product_thumbnails_position": "side",
      "shipping_calculator_heading": "Shipping rates calculator",
      "shipping_calculator_submit_button_label": "Calculate shipping rates",
      "shipping_calculator_submit_button_label_disabled": "Calculating...",
      "quick_shop_text": "Quick Shop",
      "sections": {
        "header": {
          "type": "header",
          "blocks": {
            "1535002703687": {
              "type": "menu",
              "settings": {
                "mega_menu_title": "",
                "column_image": "",
                "column_title": "Catalog",
                "column_text": "",
                "column_link": "",
                "mega_text": "",
                "mega_text_url": "",
                "mega_menu_banner_bg": "#ffffff",
                "mega_menu_banner_text": "#404040"
              }
            }
          },
          "block_order": [
            "1535002703687"
          ],
          "settings": {
            "show_announcement_message": false,
            "announcement_homepage_only": false,
            "announcement_message": "Announcement message",
            "announcement_link": "",
            "announcement_color": "#444",
            "announcement_text_color": "#fff",
            "fix_top_bar": true,
            "search_box_top_bar": true,
            "top_bar_linklist": "",
            "phone_number": "",
            "logo": "",
            "logo_width": 360,
            "logo_alignment": "center",
            "main_linklist": "main-menu",
            "menu_alignment": "center",
            "nav_border": "double",
            "nav_separator": "solid"
          }
        },
        "footer": {
          "type": "footer",
          "settings": {
            "footer_linklist_2": "footer",
            "footer_linklist_1": "",
            "title": "text column",
            "footer_content_right": "<p>This right-hand column can be used to include some&nbsp;additional text, such as an address or contact info.<\/p>",
            "footer_content_page": "",
            "footer_alignment": "center",
            "copyright_text": "",
            "newsletter_richtext": "<p>Sign up to get the latest on sales, new releases and more…<\/p>",
            "footer_newsletter": true,
            "display_payment_methods": true
          }
        }
      }
    },
    "Paris": {
      "logo_color": "#404040",
      "regular_color": "#404040",
      "headline_color": "#003872",
      "banner_color": "#ffffff",
      "headline_footer_text_color": "#000000",
      "footer_text_color": "#888888",
      "sale_price_color": "#dba932",
      "was_price_color": "#888888",
      "newsletter_popup_color": "#404040",
      "link_color": "#9f9f9f",
      "link_hover_color": "#000000",
      "nav_color": "#003163",
      "nav_color_active": "#dba932",
      "nav_color_hover": "#dba932",
      "top_bar_color": "#9f9f9f",
      "top_bar_color_hover": "#000000",
      "footer_link_color": "#888888",
      "footer_link_color_hover": "#000000",
      "btn_color": "#ffebbb",
      "btn_hover_color": "#f3f3f3",
      "footer_button": "#ffebbb",
      "footer_button_hover": "#f3f3f3",
      "btn_txt_color": "#000000",
      "table_styles_enabled": true,
      "border_color": "#d3d3d3",
      "footer_border_color": "#ffffff",
      "sale_color": "#222222",
      "new_banner_color": "#003872",
      "header_social_icons_color": "#000000",
      "header_social_icons_color_hover": "#d3d3d3",
      "social_icons_color": "#000000",
      "social_icons_color_hover": "#d3d3d3",
      "shop_bg_color": "#ffffff",
      "dropdown_background_color": "#ffffff",
      "dropdown_transparency": false,
      "custom_bg": "",
      "repeat_bg": "repeat",
      "bg_fixed": false,
      "bg_stretched": false,
      "top_bar_bg_color": "#ffffff",
      "footer_color": "#ffffff",
      "newsletter_popup_background_color": "#ffffff",
      "modal_background_color": "#ffffff",
      "quick_shop_button_color": "#ffebbb",
      "quick_shop_button_hover_color": "#d3d3d3",
      "quick_shop_text_color": "#000000",
      "password_page_text_color": "#ffffff",
      "password_page_background_color": "#003872",
      "password_page_footer_text_color": "#666666",
      "password_page_footer_link_color": "#9f9f9f",
      "logo__font": "garamond_n4",
      "logo_font_style": "uppercase",
      "logo_font_size": 42,
      "headline__font": "garamond_n4",
      "headline_font_style": "none",
      "headline_alignment": "center",
      "headline_font_size": 44,
      "headline_letter_spacing": 0,
      "nav__font": "garamond_n4",
      "nav_font_style": "uppercase",
      "nav_font_size": 16,
      "nav_letter_spacing": 1,
      "nav_dropdown_weight": "normal",
      "nav_dropdown_font_style": "uppercase",
      "nav_dropdown_font_size": 14,
      "top_bar__font": "avenir_next_n5",
      "top_bar_font_style": "uppercase",
      "top_bar_font_size": 12,
      "top_bar_letter_spacing": 1,
      "display_text_shadow": false,
      "regular__font": "garamond_n4",
      "regular_font_style": "none",
      "regular_font_size": 18,
      "footer_font_size": 16,
      "slideshow_headline__font": "garamond_n4",
      "slideshow_headline_size": 56,
      "slideshow_subtitle__font": "garamond_n4",
      "slideshow_subtitle_font_style": "none",
      "slideshow_subtitle_size": 22,
      "display_social_buttons": true,
      "header_social_icons": false,
      "enable_social_links": true,
      "rounded_social_icons": false,
      "twitter_link": "",
      "facebook_link": "",
      "youtube_link": "",
      "vimeo_link": "",
      "pinterest_link": "",
      "tumblr_link": "",
      "instagram_link": "",
      "linkedin_link": "",
      "flickr_link": "",
      "email_link": "",
      "disqus_enabled": false,
      "disqus_shortname": "",
      "mobile_products_per_row": "2",
      "align_height": false,
      "collection_height": 200,
      "collection_price_position": "right",
      "collection_border": false,
      "collection_secondary_image": false,
      "display_vendor_collection": false,
      "sale_banner_enabled": true,
      "collection_swatches": false,
      "display_product_quantity": false,
      "limit_quantity": false,
      "display_inventory_left": false,
      "notify_me_form": false,
      "notify_me_richtext": "<p>Notify me when this product is available:<\/p>",
      "product_form_style": "dropdown",
      "free_price_text": "Free",
      "size_chart": "",
      "product_slideshow_animation": "fade",
      "slideshow_speed": 6,
      "thumbnail_position": "right-thumbnails",
      "quick_shop_enabled": true,
      "product_description_position": "top",
      "description_words": "15",
      "show_payment_button": true,
      "enable_shopify_review_comments": true,
      "review_position": "bottom",
      "enable_shopify_collection_badges": false,
      "enable_shopify_product_badges": true,
      "cart_action": "ajax",
      "show_shipping_calculator": false,
      "shipping_calculator_default_country": "United States",
      "currency_format": "money_format",
      "search_option": "product",
      "favicon": "",
      "checkout_header_image": "",
      "checkout_logo_image": "shopify:\/\/shop_images\/responsive-paris-logo-08-09-18-01.png",
      "checkout_logo_position": "left",
      "checkout_logo_size": "medium",
      "checkout_body_background_image": "",
      "checkout_body_background_color": "#f3f3f3",
      "checkout_input_background_color_mode": "white",
      "checkout_sidebar_background_image": "",
      "checkout_sidebar_background_color": "#ffebbb",
      "checkout_heading_font": "Garamond, Baskerville, 'Baskerville Old Face', 'Hoefler Text', 'Times New Roman'",
      "checkout_body_font": "Source Sans Pro",
      "checkout_accent_color": "#dd4b39",
      "checkout_button_color": "#222222",
      "checkout_error_color": "#ff6d6d",
      "newsletter_bg": "",
      "newsletter_bg_stretched": false,
      "newsletter_popup_link": "",
      "use_logo": false,
      "logo_width": "360",
      "logo_alignment": "center",
      "main_linklist": "main-menu",
      "menu_alignment": "center",
      "nav_border": "double",
      "nav_separator": "solid",
      "featured_content_page": "",
      "secondary_btn_color": "#f2f2f2",
      "use_custom_bg_image": false,
      "custom_bg_image_select": "custom_bg.png",
      "use_custom_top_bar_image": false,
      "custom_top_bar_image_select": "custom_top_bar.png",
      "use_newsletter_bg_image": false,
      "search_box_top_bar": true,
      "fix_top_bar": true,
      "top_bar_linklist": "",
      "slideshow_enabled": true,
      "slideshow_animation": "fade",
      "slideshow_stretch": true,
      "slideshow_width_narrow": false,
      "slideshow_headline_weight": "normal",
      "video_embed": "",
      "video_width": "set",
      "video_width_px": "",
      "video_position": "1",
      "slideshow_1_enabled": true,
      "image_1_alt_text": "The Responsive Shopify Theme",
      "image_1_headline": "The Responsive Shopify Theme",
      "image_1_subtitle": "",
      "image_1_text_color": "#ffffff",
      "image_1_text_align": "center",
      "image_1_button_text": "",
      "image_1_link": "",
      "slideshow_2_enabled": true,
      "image_2_text_color": "#ffffff",
      "image_2_text_align": "center",
      "image_2_button_text": "",
      "image_2_link": "",
      "slideshow_3_enabled": false,
      "image_3_alt_text": "",
      "image_3_headline": "",
      "image_3_subtitle": "",
      "image_3_text_color": "#ffffff",
      "image_3_text_align": "center",
      "image_3_button_text": "",
      "image_3_link": "",
      "slideshow_4_enabled": false,
      "image_4_alt_text": "",
      "image_4_headline": "",
      "image_4_subtitle": "",
      "image_4_text_color": "#ffffff",
      "image_4_text_align": "center",
      "image_4_button_text": "",
      "image_4_link": "",
      "slideshow_5_enabled": false,
      "image_5_alt_text": "",
      "image_5_headline": "",
      "image_5_subtitle": "",
      "image_5_text_color": "#ffffff",
      "image_5_text_align": "center",
      "image_5_button_text": "",
      "image_5_link": "",
      "slideshow_6_enabled": false,
      "image_6_alt_text": "",
      "image_6_headline": "",
      "image_6_subtitle": "",
      "image_6_text_color": "#ffffff",
      "image_6_text_align": "center",
      "image_6_button_text": "",
      "image_6_link": "",
      "banner_1_enabled": false,
      "banner_1_text_color": "#ffffff",
      "banner_1_text_align": "center",
      "banner_2_enabled": false,
      "banner_2_text_color": "#ffffff",
      "banner_2_text_align": "center",
      "banner_3_enabled": false,
      "banner_3_text_color": "#ffffff",
      "banner_3_text_align": "center",
      "homepage": "",
      "homepage2": "",
      "homepage3": "",
      "homepage4": "",
      "frontpage_collections_per_row": "3",
      "frontpage_collections_title": true,
      "collection_title": true,
      "frontpage_collection": "",
      "frontpage_products_per_row": "4",
      "frontpage_display_description": true,
      "frontpage_product_stagger": false,
      "blog_widget_select": "",
      "home_page_articles": "3",
      "product_breadcrumb": true,
      "display_tags": true,
      "display_type": true,
      "display_vendor": true,
      "display_collections": false,
      "display_sku": false,
      "show_product_recommendations": true,
      "product_thumbs": true,
      "product_images_position": "left",
      "products_per_row": "3",
      "pagination_limit": "48",
      "collection_breadcrumb": true,
      "faceted_filters": true,
      "collection_sort": true,
      "quick_shop_full_description": false,
      "collection_sidebar": false,
      "collection_sidebar_linklist": "",
      "collection_sidebar_linklist2": "",
      "filter_by_category": false,
      "filter_by_tag": false,
      "collection_sidebar_products": false,
      "collection_sidebar_vendors": false,
      "collection_sidebar_page": "",
      "tax_included": false,
      "display_special_instructions": false,
      "display_tos_checkbox": false,
      "display_social_buttons_blog": true,
      "blog_tags": true,
      "blog_content_page": "",
      "newsletter_enabled": true,
      "newsletter_system": "shopify",
      "mailchimp_link": "",
      "footer_linklist_2": "footer",
      "footer_linklist_1": "main-menu",
      "copyright_text": "",
      "use_paypal": false,
      "use_bitcoin": false,
      "use_visa": false,
      "use_visaelectron": false,
      "use_mastercard": false,
      "use_amex": false,
      "use_cirrus": false,
      "use_delta": false,
      "use_discover": false,
      "use_western_union": false,
      "newsletter_popup_page": "",
      "checkout_use_header_image": false,
      "checkout_banner_background_color": "#222222",
      "checkout_logo": "",
      "checkout_headline": "",
      "checkout_call_to_action_color": "#DD4B39",
      "shop_use_content_bg_color": "1",
      "shop_content_bg_color": "#bb3131",
      "blog_widget": true,
      "checkout_background_color": "#ffffff",
      "checkout_background_image": false,
      "checkout_text_color": "#404040",
      "checkout_headline_color": "#404040",
      "collection_top_sidebar_page": "",
      "newsletter_success_text": "Thank you for joining our mailing list!",
      "newsletter_description": "Subscribe to our newsletter and always be the first to hear about what is happening.",
      "display_borders": true,
      "header_share_button": false,
      "product_zoom_enabled": false,
      "product_thumbnails_position": "side",
      "shipping_calculator_heading": "Shipping rates calculator",
      "shipping_calculator_submit_button_label": "Calculate shipping rates",
      "shipping_calculator_submit_button_label_disabled": "Calculating...",
      "quick_shop_text": "Quick Shop",
      "sections": {
        "header": {
          "type": "header",
          "blocks": {
            "1535002703687": {
              "type": "menu",
              "settings": {
                "mega_menu_title": "",
                "column_image": "",
                "column_title": "Catalog",
                "column_text": "",
                "column_link": "",
                "mega_text": "",
                "mega_text_url": "",
                "mega_menu_banner_bg": "#ffffff",
                "mega_menu_banner_text": "#404040"
              }
            }
          },
          "block_order": [
            "1535002703687"
          ],
          "settings": {
            "show_announcement_message": false,
            "announcement_homepage_only": false,
            "announcement_message": "Announcement message",
            "announcement_link": "",
            "announcement_color": "#444",
            "announcement_text_color": "#fff",
            "fix_top_bar": true,
            "search_box_top_bar": true,
            "top_bar_linklist": "",
            "phone_number": "",
            "logo": "",
            "logo_width": 360,
            "logo_alignment": "center",
            "main_linklist": "main-menu",
            "menu_alignment": "center",
            "nav_border": "double",
            "nav_separator": "solid"
          }
        },
        "footer": {
          "type": "footer",
          "settings": {
            "footer_linklist_2": "footer",
            "footer_linklist_1": "",
            "title": "text column",
            "footer_content_right": "<p>This right-hand column can be used to include some&nbsp;additional text, such as an address or contact info.<\/p>",
            "footer_content_page": "",
            "footer_alignment": "center",
            "copyright_text": "",
            "newsletter_richtext": "<p>Sign up to get the latest on sales, new releases and more…<\/p>",
            "footer_newsletter": true,
            "display_payment_methods": true
          }
        }
      }
    },
    "New York": {
      "logo_color": "#404040",
      "regular_color": "#404040",
      "headline_color": "#404040",
      "banner_color": "#ffffff",
      "headline_footer_text_color": "#ffffff",
      "footer_text_color": "#cec6bf",
      "sale_price_color": "#dd4b39",
      "was_price_color": "#dd4b39",
      "newsletter_popup_color": "#404040",
      "link_color": "#dd4b39",
      "link_hover_color": "#b03424",
      "nav_color": "#000000",
      "nav_color_active": "#404040",
      "nav_color_hover": "#dd4b39",
      "top_bar_color": "#ffffff",
      "top_bar_color_hover": "#ffffff",
      "footer_link_color": "#ffffff",
      "footer_link_color_hover": "#dd4b39",
      "btn_color": "#dd4b39",
      "btn_hover_color": "#b03424",
      "footer_button": "#dd4b39",
      "footer_button_hover": "#be4333",
      "btn_txt_color": "#ffffff",
      "table_styles_enabled": true,
      "border_color": "#cec6bf",
      "footer_border_color": "#222222",
      "sale_color": "#dd4b39",
      "new_banner_color": "#0fa0ac",
      "header_social_icons_color": "#404040",
      "header_social_icons_color_hover": "#dd4b39",
      "social_icons_color": "#ffffff",
      "social_icons_color_hover": "#cec6bf",
      "shop_bg_color": "#ffffff",
      "dropdown_background_color": "#ffffff",
      "dropdown_transparency": false,
      "custom_bg": "",
      "repeat_bg": "repeat",
      "bg_fixed": false,
      "bg_stretched": false,
      "top_bar_bg_color": "#222222",
      "footer_color": "#222222",
      "newsletter_popup_background_color": "#ffffff",
      "modal_background_color": "#ffffff",
      "quick_shop_button_color": "#404040",
      "quick_shop_button_hover_color": "#dd4b39",
      "quick_shop_text_color": "#ffffff",
      "password_page_text_color": "#ffffff",
      "password_page_background_color": "#000000",
      "password_page_footer_text_color": "#666666",
      "password_page_footer_link_color": "#cec6bf",
      "logo__font": "abril_fatface_n4",
      "logo_font_style": "uppercase",
      "logo_font_size": 42,
      "headline__font": "chivo_n4",
      "headline_font_style": "uppercase",
      "headline_alignment": "center",
      "headline_font_size": 26,
      "headline_letter_spacing": 1,
      "nav__font": "chivo_n4",
      "nav_font_style": "uppercase",
      "nav_font_size": 13,
      "nav_letter_spacing": 2,
      "nav_dropdown_weight": "normal",
      "nav_dropdown_font_style": "none",
      "nav_dropdown_font_size": 13,
      "top_bar__font": "chivo_n4",
      "top_bar_font_style": "uppercase",
      "top_bar_font_size": 11,
      "top_bar_letter_spacing": 1,
      "display_text_shadow": false,
      "regular__font": "chivo_n4",
      "regular_font_style": "none",
      "regular_font_size": 15,
      "footer_font_size": 13,
      "slideshow_headline__font": "abril_fatface_n4",
      "slideshow_headline_size": 45,
      "slideshow_subtitle__font": "chivo_n4",
      "slideshow_subtitle_font_style": "none",
      "slideshow_subtitle_size": 18,
      "display_social_buttons": false,
      "header_social_icons": false,
      "enable_social_links": true,
      "rounded_social_icons": true,
      "twitter_link": "",
      "facebook_link": "",
      "youtube_link": "",
      "vimeo_link": "",
      "pinterest_link": "",
      "tumblr_link": "",
      "instagram_link": "",
      "linkedin_link": "",
      "flickr_link": "",
      "email_link": "",
      "disqus_enabled": false,
      "disqus_shortname": "",
      "mobile_products_per_row": "1",
      "align_height": false,
      "collection_height": 200,
      "collection_price_position": "center",
      "collection_border": false,
      "collection_secondary_image": false,
      "display_vendor_collection": false,
      "sale_banner_enabled": true,
      "collection_swatches": false,
      "display_product_quantity": false,
      "limit_quantity": false,
      "display_inventory_left": false,
      "notify_me_form": true,
      "notify_me_richtext": "<p>Notify me when this product is available:<\/p>",
      "product_form_style": "swatches",
      "free_price_text": "Free",
      "size_chart": "",
      "product_slideshow_animation": "slide",
      "slideshow_speed": 6,
      "thumbnail_position": "bottom-thumbnails",
      "quick_shop_enabled": true,
      "product_description_position": "top",
      "description_words": "15",
      "show_payment_button": true,
      "enable_shopify_review_comments": true,
      "review_position": "bottom",
      "enable_shopify_collection_badges": false,
      "enable_shopify_product_badges": true,
      "cart_action": "ajax",
      "show_shipping_calculator": false,
      "shipping_calculator_default_country": "United States",
      "currency_format": "money_format",
      "search_option": "product",
      "favicon": "shopify:\/\/shop_images\/favicon-ny2.png",
      "checkout_header_image": "shopify:\/\/shop_images\/form.jpg",
      "checkout_logo_image": "shopify:\/\/shop_images\/NYC-logo-red.png",
      "checkout_logo_position": "left",
      "checkout_logo_size": "medium",
      "checkout_body_background_image": "",
      "checkout_body_background_color": "#fff",
      "checkout_input_background_color_mode": "white",
      "checkout_sidebar_background_image": "",
      "checkout_sidebar_background_color": "#fafafa",
      "checkout_heading_font": "-apple-system, BlinkMacSystemFont, 'Segoe UI', Roboto, Helvetica, Arial, sans-serif, 'Apple Color Emoji', 'Segoe UI Emoji', 'Segoe UI Symbol'",
      "checkout_body_font": "-apple-system, BlinkMacSystemFont, 'Segoe UI', Roboto, Helvetica, Arial, sans-serif, 'Apple Color Emoji', 'Segoe UI Emoji', 'Segoe UI Symbol'",
      "checkout_accent_color": "#0fa0ac",
      "checkout_button_color": "#dd4b39",
      "checkout_error_color": "#e32c2b",
      "newsletter_bg": "",
      "newsletter_bg_stretched": false,
      "newsletter_popup_link": "",
      "logo_font": "Google_Josefin+Sans",
      "logo_weight": "normal",
      "headline_font": "Google_Cabin",
      "headline_weight": "normal",
      "nav_font": "Google_Cabin",
      "nav_weight": "bold",
      "top_bar_font": "Google_Josefin+Sans",
      "top_bar_weight": "normal",
      "regular_font": "Google_Merriweather",
      "regular_weight": "normal",
      "slideshow_headline_weight": "normal",
      "slideshow_subtitle_font": "Google_Ubuntu",
      "slideshow_subtitle_weight": "normal",
      "slideshow_subtitle_font_text": "normal",
      "use_logo": false,
      "logo_width": "360",
      "logo_alignment": "center",
      "main_linklist": "main-menu",
      "menu_alignment": "center",
      "nav_border": "double",
      "nav_separator": "solid",
      "featured_content_page": "",
      "secondary_btn_color": "#f2f2f2",
      "use_custom_bg_image": false,
      "custom_bg_image_select": "custom_bg.png",
      "use_custom_top_bar_image": false,
      "custom_top_bar_image_select": "custom_top_bar.png",
      "use_newsletter_bg_image": false,
      "logo_typeface_method": "google_webfonts",
      "logo_websafe_font": "Futura, 'Century Gothic', AppleGothic, sans-serif",
      "headline_typeface_method": "google_webfonts",
      "headline_websafe_font": "Futura, 'Century Gothic', AppleGothic, sans-serif",
      "nav_typeface_method": "google_webfonts",
      "nav_websafe_font": "Futura, 'Century Gothic', AppleGothic, sans-serif",
      "top_bar_typeface_method": "websafe",
      "top_bar_google_webfont_font": "Merriweather",
      "regular_typeface_method": "google_webfonts",
      "regular_websafe_font": "Futura, 'Century Gothic', AppleGothic, sans-serif",
      "search_box_top_bar": true,
      "fix_top_bar": true,
      "top_bar_linklist": "",
      "slideshow_enabled": true,
      "slideshow_animation": "fade",
      "slideshow_stretch": true,
      "slideshow_width_narrow": false,
      "slideshow_subtitle_typeface_method": "google_webfonts",
      "slideshow_subtitle_websafe_font": "'HelveticaNeue-Light', 'Helvetica Neue Light', 'Helvetica Neue', Helvetica, Arial, sans-serif",
      "video_embed": "",
      "video_width": "set",
      "video_width_px": "",
      "video_position": "1",
      "slideshow_1_enabled": true,
      "image_1_alt_text": "The Responsive Shopify Theme",
      "image_1_headline": "The Responsive Shopify Theme",
      "image_1_subtitle": "",
      "image_1_text_color": "#ffffff",
      "image_1_text_align": "center",
      "image_1_button_text": "",
      "image_1_link": "",
      "slideshow_2_enabled": true,
      "image_2_text_color": "#ffffff",
      "image_2_text_align": "center",
      "image_2_button_text": "",
      "image_2_link": "",
      "slideshow_3_enabled": false,
      "image_3_alt_text": "",
      "image_3_headline": "",
      "image_3_subtitle": "",
      "image_3_text_color": "#ffffff",
      "image_3_text_align": "center",
      "image_3_button_text": "",
      "image_3_link": "",
      "slideshow_4_enabled": false,
      "image_4_alt_text": "",
      "image_4_headline": "",
      "image_4_subtitle": "",
      "image_4_text_color": "#ffffff",
      "image_4_text_align": "center",
      "image_4_button_text": "",
      "image_4_link": "",
      "slideshow_5_enabled": false,
      "image_5_alt_text": "",
      "image_5_headline": "",
      "image_5_subtitle": "",
      "image_5_text_color": "#ffffff",
      "image_5_text_align": "center",
      "image_5_button_text": "",
      "image_5_link": "",
      "slideshow_6_enabled": false,
      "image_6_alt_text": "",
      "image_6_headline": "",
      "image_6_subtitle": "",
      "image_6_text_color": "#ffffff",
      "image_6_text_align": "center",
      "image_6_button_text": "",
      "image_6_link": "",
      "banner_1_enabled": false,
      "banner_1_text_color": "#ffffff",
      "banner_1_text_align": "center",
      "banner_2_enabled": false,
      "banner_2_text_color": "#ffffff",
      "banner_2_text_align": "center",
      "banner_3_enabled": false,
      "banner_3_text_color": "#ffffff",
      "banner_3_text_align": "center",
      "homepage": "",
      "homepage2": "",
      "homepage3": "",
      "homepage4": "",
      "frontpage_collections_per_row": "3",
      "frontpage_collections_title": true,
      "collection_title": true,
      "frontpage_collection": "",
      "frontpage_products_per_row": "4",
      "frontpage_display_description": true,
      "frontpage_product_stagger": false,
      "blog_widget_select": "",
      "home_page_articles": "3",
      "product_breadcrumb": true,
      "display_tags": true,
      "display_type": true,
      "display_vendor": true,
      "display_collections": false,
      "display_sku": false,
      "show_product_recommendations": true,
      "product_thumbs": true,
      "product_images_position": "left",
      "products_per_row": "3",
      "pagination_limit": "48",
      "collection_breadcrumb": true,
      "faceted_filters": true,
      "collection_sort": true,
      "quick_shop_full_description": false,
      "collection_sidebar": false,
      "collection_sidebar_linklist": "",
      "collection_sidebar_linklist2": "",
      "filter_by_category": false,
      "filter_by_tag": false,
      "collection_sidebar_products": false,
      "collection_sidebar_vendors": false,
      "collection_sidebar_page": "",
      "tax_included": false,
      "display_special_instructions": false,
      "display_tos_checkbox": false,
      "display_social_buttons_blog": true,
      "blog_tags": true,
      "blog_content_page": "",
      "newsletter_enabled": true,
      "newsletter_system": "shopify",
      "mailchimp_link": "",
      "footer_linklist_2": "footer",
      "footer_linklist_1": "main-menu",
      "copyright_text": "",
      "use_paypal": false,
      "use_bitcoin": false,
      "use_visa": false,
      "use_visaelectron": false,
      "use_mastercard": false,
      "use_amex": false,
      "use_cirrus": false,
      "use_delta": false,
      "use_discover": false,
      "use_western_union": false,
      "newsletter_popup_page": "",
      "checkout_use_header_image": false,
      "checkout_banner_background_color": "#222222",
      "checkout_logo": "",
      "checkout_headline": "",
      "checkout_call_to_action_color": "#DD4B39",
      "shop_use_content_bg_color": "1",
      "shop_content_bg_color": "#bb3131",
      "blog_widget": true,
      "checkout_background_color": "#ffffff",
      "checkout_background_image": false,
      "checkout_text_color": "#404040",
      "checkout_headline_color": "#404040",
      "collection_top_sidebar_page": "",
      "newsletter_success_text": "Thank you for joining our mailing list!",
      "newsletter_description": "Subscribe to our newsletter and always be the first to hear about what is happening.",
      "display_borders": true,
      "header_share_button": false,
      "product_zoom_enabled": false,
      "product_thumbnails_position": "side",
      "shipping_calculator_heading": "Shipping rates calculator",
      "shipping_calculator_submit_button_label": "Calculate shipping rates",
      "shipping_calculator_submit_button_label_disabled": "Calculating...",
      "quick_shop_text": "Quick Shop",
      "sections": {
        "header": {
          "type": "header",
          "blocks": {
            "1535002703687": {
              "type": "menu",
              "settings": {
                "mega_menu_title": "",
                "column_image": "",
                "column_title": "Catalog",
                "column_text": "",
                "column_link": "",
                "mega_text": "",
                "mega_text_url": "",
                "mega_menu_banner_bg": "#ffffff",
                "mega_menu_banner_text": "#404040"
              }
            }
          },
          "block_order": [
            "1535002703687"
          ],
          "settings": {
            "show_announcement_message": false,
            "announcement_homepage_only": false,
            "announcement_message": "Announcement message",
            "announcement_link": "",
            "announcement_color": "#444",
            "announcement_text_color": "#fff",
            "fix_top_bar": true,
            "search_box_top_bar": true,
            "top_bar_linklist": "",
            "phone_number": "",
            "logo": "",
            "logo_width": 360,
            "logo_alignment": "center",
            "main_linklist": "main-menu",
            "menu_alignment": "center",
            "nav_border": "double",
            "nav_separator": "solid"
          }
        },
        "footer": {
          "type": "footer",
          "settings": {
            "footer_linklist_2": "footer",
            "footer_linklist_1": "",
            "title": "text column",
            "footer_content_right": "<p>This right-hand column can be used to include some&nbsp;additional text, such as an address or contact info.<\/p>",
            "footer_content_page": "",
            "footer_alignment": "center",
            "copyright_text": "",
            "newsletter_richtext": "<p>Sign up to get the latest on sales, new releases and more…<\/p>",
            "footer_newsletter": true,
            "display_payment_methods": true
          }
        }
      }
    },
    "San Francisco": {
      "logo_color": "#000000",
      "regular_color": "#404040",
      "headline_color": "#404040",
      "banner_color": "#000000",
      "headline_footer_text_color": "#000000",
      "footer_text_color": "#000000",
      "sale_price_color": "#a65754",
      "was_price_color": "#888888",
      "newsletter_popup_color": "#404040",
      "link_color": "#924a4d",
      "link_hover_color": "#651b1e",
      "nav_color": "#000000",
      "nav_color_active": "#a65754",
      "nav_color_hover": "#a65754",
      "top_bar_color": "#404040",
      "top_bar_color_hover": "#924a4d",
      "footer_link_color": "#651b1e",
      "footer_link_color_hover": "#707070",
      "btn_color": "#000000",
      "btn_hover_color": "#924a4d",
      "footer_button": "#000000",
      "footer_button_hover": "#a65754",
      "btn_txt_color": "#ffffff",
      "table_styles_enabled": false,
      "border_color": "#cdcdcd",
      "footer_border_color": "rgba(0,0,0,0)",
      "sale_color": "#924a4d",
      "new_banner_color": "#8b7569",
      "header_social_icons_color": "#404040",
      "header_social_icons_color_hover": "#a65754",
      "social_icons_color": "#000000",
      "social_icons_color_hover": "#a65754",
      "shop_bg_color": "#ffffff",
      "dropdown_background_color": "#f3ebeb",
      "dropdown_transparency": false,
      "custom_bg": "",
      "repeat_bg": "repeat",
      "bg_fixed": false,
      "bg_stretched": false,
      "top_bar_bg_color": "#ffffff",
      "footer_color": "#f8ecec",
      "newsletter_popup_background_color": "#ffffff",
      "modal_background_color": "#f2efea",
      "quick_shop_button_color": "#000000",
      "quick_shop_button_hover_color": "#924a4d",
      "quick_shop_text_color": "#ffffff",
      "password_page_text_color": "#ffffff",
      "password_page_background_color": "#000000",
      "password_page_footer_text_color": "#666666",
      "password_page_footer_link_color": "#9c9c9c",
      "logo__font": "questrial_n4",
      "logo_font_style": "none",
      "logo_font_size": 42,
      "headline__font": "montserrat_n4",
      "headline_font_style": "none",
      "headline_alignment": "center",
      "headline_font_size": 25,
      "headline_letter_spacing": 0,
      "nav__font": "montserrat_n5",
      "nav_font_style": "uppercase",
      "nav_font_size": 13,
      "nav_letter_spacing": 1,
      "nav_dropdown_weight": "normal",
      "nav_dropdown_font_style": "none",
      "nav_dropdown_font_size": 14,
      "top_bar__font": "montserrat_n4",
      "top_bar_font_style": "none",
      "top_bar_font_size": 13,
      "top_bar_letter_spacing": 0,
      "display_text_shadow": false,
      "regular__font": "nunito_sans_n4",
      "regular_font_style": "none",
      "regular_font_size": 15,
      "footer_font_size": 13,
      "slideshow_headline__font": "montserrat_n4",
      "slideshow_headline_size": 42,
      "slideshow_subtitle__font": "nunito_sans_n4",
      "slideshow_subtitle_font_style": "none",
      "slideshow_subtitle_size": 19,
      "display_social_buttons": true,
      "header_social_icons": true,
      "enable_social_links": true,
      "rounded_social_icons": false,
      "twitter_link": "",
      "facebook_link": "",
      "youtube_link": "",
      "vimeo_link": "",
      "pinterest_link": "",
      "tumblr_link": "",
      "instagram_link": "",
      "linkedin_link": "",
      "flickr_link": "",
      "email_link": "",
      "disqus_enabled": false,
      "disqus_shortname": "",
      "mobile_products_per_row": "2",
      "align_height": true,
      "collection_height": 280,
      "collection_price_position": "center",
      "collection_border": false,
      "collection_secondary_image": true,
      "display_vendor_collection": false,
      "sale_banner_enabled": true,
      "collection_swatches": false,
      "display_product_quantity": true,
      "limit_quantity": false,
      "display_inventory_left": false,
      "notify_me_form": true,
      "notify_me_richtext": "<p>Notify me when this product is available:<\/p>",
      "product_form_style": "dropdown",
      "free_price_text": "Free",
      "size_chart": "",
      "product_slideshow_animation": "fade",
      "slideshow_speed": 6,
      "thumbnail_position": "right-thumbnails",
      "quick_shop_enabled": true,
      "product_description_position": "top",
      "description_words": "15",
      "show_payment_button": true,
      "enable_shopify_review_comments": true,
      "review_position": "bottom",
      "enable_shopify_collection_badges": true,
      "enable_shopify_product_badges": true,
      "cart_action": "ajax",
      "show_shipping_calculator": false,
      "shipping_calculator_default_country": "United States",
      "currency_format": "money_format",
      "search_option": "product",
      "favicon": "",
      "checkout_header_image": "shopify:\/\/shop_images\/SS-petals-light.jpg",
      "checkout_logo_image": "shopify:\/\/shop_images\/logo5.png",
      "checkout_logo_position": "left",
      "checkout_logo_size": "large",
      "checkout_body_background_image": "",
      "checkout_body_background_color": "#fffefc",
      "checkout_input_background_color_mode": "white",
      "checkout_sidebar_background_image": "",
      "checkout_sidebar_background_color": "#eee9e0",
      "checkout_heading_font": "Helvetica Neue",
      "checkout_body_font": "Helvetica Neue",
      "checkout_accent_color": "#a65754",
      "checkout_button_color": "#924a4d",
      "checkout_error_color": "#fc1111",
      "newsletter_bg": "",
      "newsletter_bg_stretched": false,
      "newsletter_popup_link": "",
      "use_logo": false,
      "logo_width": "360",
      "logo_alignment": "center",
      "main_linklist": "main-menu",
      "menu_alignment": "center",
      "nav_border": "double",
      "nav_separator": "solid",
      "featured_content_page": "",
      "secondary_btn_color": "#f2f2f2",
      "use_custom_bg_image": false,
      "custom_bg_image_select": "custom_bg.png",
      "use_custom_top_bar_image": false,
      "custom_top_bar_image_select": "custom_top_bar.png",
      "use_newsletter_bg_image": false,
      "search_box_top_bar": true,
      "fix_top_bar": true,
      "top_bar_linklist": "",
      "slideshow_enabled": true,
      "slideshow_animation": "fade",
      "slideshow_stretch": true,
      "slideshow_width_narrow": false,
      "slideshow_headline_weight": "normal",
      "video_embed": "",
      "video_width": "set",
      "video_width_px": "",
      "video_position": "1",
      "slideshow_1_enabled": true,
      "image_1_alt_text": "The Responsive Shopify Theme",
      "image_1_headline": "The Responsive Shopify Theme",
      "image_1_subtitle": "",
      "image_1_text_color": "#ffffff",
      "image_1_text_align": "center",
      "image_1_button_text": "",
      "image_1_link": "",
      "slideshow_2_enabled": true,
      "image_2_text_color": "#ffffff",
      "image_2_text_align": "center",
      "image_2_button_text": "",
      "image_2_link": "",
      "slideshow_3_enabled": false,
      "image_3_alt_text": "",
      "image_3_headline": "",
      "image_3_subtitle": "",
      "image_3_text_color": "#ffffff",
      "image_3_text_align": "center",
      "image_3_button_text": "",
      "image_3_link": "",
      "slideshow_4_enabled": false,
      "image_4_alt_text": "",
      "image_4_headline": "",
      "image_4_subtitle": "",
      "image_4_text_color": "#ffffff",
      "image_4_text_align": "center",
      "image_4_button_text": "",
      "image_4_link": "",
      "slideshow_5_enabled": false,
      "image_5_alt_text": "",
      "image_5_headline": "",
      "image_5_subtitle": "",
      "image_5_text_color": "#ffffff",
      "image_5_text_align": "center",
      "image_5_button_text": "",
      "image_5_link": "",
      "slideshow_6_enabled": false,
      "image_6_alt_text": "",
      "image_6_headline": "",
      "image_6_subtitle": "",
      "image_6_text_color": "#ffffff",
      "image_6_text_align": "center",
      "image_6_button_text": "",
      "image_6_link": "",
      "banner_1_enabled": false,
      "banner_1_text_color": "#ffffff",
      "banner_1_text_align": "center",
      "banner_2_enabled": false,
      "banner_2_text_color": "#ffffff",
      "banner_2_text_align": "center",
      "banner_3_enabled": false,
      "banner_3_text_color": "#ffffff",
      "banner_3_text_align": "center",
      "homepage": "",
      "homepage2": "",
      "homepage3": "",
      "homepage4": "",
      "frontpage_collections_per_row": "3",
      "frontpage_collections_title": true,
      "collection_title": true,
      "frontpage_collection": "",
      "frontpage_products_per_row": "4",
      "frontpage_display_description": true,
      "frontpage_product_stagger": false,
      "blog_widget_select": "",
      "home_page_articles": "3",
      "product_breadcrumb": true,
      "display_tags": true,
      "display_type": true,
      "display_vendor": true,
      "display_collections": false,
      "display_sku": false,
      "show_product_recommendations": true,
      "product_thumbs": true,
      "product_images_position": "left",
      "products_per_row": "3",
      "pagination_limit": "48",
      "collection_breadcrumb": true,
      "faceted_filters": true,
      "collection_sort": true,
      "quick_shop_full_description": false,
      "collection_sidebar": false,
      "collection_sidebar_linklist": "",
      "collection_sidebar_linklist2": "",
      "filter_by_category": false,
      "filter_by_tag": false,
      "collection_sidebar_products": false,
      "collection_sidebar_vendors": false,
      "collection_sidebar_page": "",
      "tax_included": false,
      "display_special_instructions": false,
      "display_tos_checkbox": false,
      "display_social_buttons_blog": true,
      "blog_tags": true,
      "blog_content_page": "",
      "newsletter_enabled": true,
      "newsletter_system": "shopify",
      "mailchimp_link": "",
      "footer_linklist_2": "footer",
      "footer_linklist_1": "main-menu",
      "copyright_text": "",
      "use_paypal": false,
      "use_bitcoin": false,
      "use_visa": false,
      "use_visaelectron": false,
      "use_mastercard": false,
      "use_amex": false,
      "use_cirrus": false,
      "use_delta": false,
      "use_discover": false,
      "use_western_union": false,
      "newsletter_popup_page": "",
      "checkout_use_header_image": false,
      "checkout_banner_background_color": "#222222",
      "checkout_logo": "",
      "checkout_headline": "",
      "checkout_call_to_action_color": "#DD4B39",
      "shop_use_content_bg_color": "1",
      "shop_content_bg_color": "#bb3131",
      "blog_widget": true,
      "checkout_background_color": "#ffffff",
      "checkout_background_image": false,
      "checkout_text_color": "#404040",
      "checkout_headline_color": "#404040",
      "collection_top_sidebar_page": "",
      "newsletter_success_text": "Thank you for joining our mailing list!",
      "newsletter_description": "Subscribe to our newsletter and always be the first to hear about what is happening.",
      "display_borders": true,
      "header_share_button": false,
      "product_zoom_enabled": false,
      "product_thumbnails_position": "side",
      "shipping_calculator_heading": "Shipping rates calculator",
      "shipping_calculator_submit_button_label": "Calculate shipping rates",
      "shipping_calculator_submit_button_label_disabled": "Calculating...",
      "quick_shop_text": "Quick Shop",
      "sections": {
        "header": {
          "type": "header",
          "blocks": {
            "1535002703687": {
              "type": "menu",
              "settings": {
                "mega_menu_title": "",
                "column_image": "",
                "column_title": "Catalog",
                "column_text": "",
                "column_link": "",
                "mega_text": "",
                "mega_text_url": "",
                "mega_menu_banner_bg": "#ffffff",
                "mega_menu_banner_text": "#404040"
              }
            }
          },
          "block_order": [
            "1535002703687"
          ],
          "settings": {
            "show_announcement_message": false,
            "announcement_homepage_only": false,
            "announcement_message": "Announcement message",
            "announcement_link": "",
            "announcement_color": "#444",
            "announcement_text_color": "#fff",
            "fix_top_bar": true,
            "search_box_top_bar": true,
            "top_bar_linklist": "",
            "phone_number": "",
            "logo": "",
            "logo_width": 360,
            "logo_alignment": "center",
            "main_linklist": "main-menu",
            "menu_alignment": "center",
            "nav_border": "double",
            "nav_separator": "solid"
          }
        },
        "footer": {
          "type": "footer",
          "settings": {
            "footer_linklist_2": "footer",
            "footer_linklist_1": "",
            "title": "text column",
            "footer_content_right": "<p>This right-hand column can be used to include some&nbsp;additional text, such as an address or contact info.<\/p>",
            "footer_content_page": "",
            "footer_alignment": "center",
            "copyright_text": "",
            "newsletter_richtext": "<p>Sign up to get the latest on sales, new releases and more…<\/p>",
            "footer_newsletter": true,
            "display_payment_methods": true
          }
        }
      }
    }
  },
  "current": {
    "top_bar_bg_color": "#f2f2f2",
    "top_bar_color": "#000000",
    "top_bar_color_hover": "#707070",
    "logo_color": "#000000",
    "nav_color": "#000000",
    "nav_color_active": "#707070",
    "nav_color_hover": "#707070",
    "header_social_icons_color": "#000000",
    "header_social_icons_color_hover": "#707070",
    "dropdown_background_color": "#ffffff",
    "dropdown_transparency": false,
    "regular_color": "#000000",
    "headline_color": "#000000",
    "banner_color": "#000000",
    "link_color": "#707070",
    "link_hover_color": "#000000",
    "sale_price_color": "#000000",
    "was_price_color": "#707070",
    "shop_bg_color": "#ffffff",
    "custom_bg": "",
    "repeat_bg": "repeat",
    "bg_fixed": false,
    "bg_stretched": false,
    "table_styles_enabled": false,
    "border_color": "#ffffff",
    "btn_color": "#000000",
    "btn_hover_color": "#707070",
    "btn_txt_color": "#ffffff",
    "sale_color": "#000000",
    "new_banner_color": "#000000",
    "modal_background_color": "#ffffff",
    "quick_shop_button_color": "#000000",
    "quick_shop_button_hover_color": "#707070",
    "quick_shop_text_color": "#ffffff",
    "newsletter_popup_color": "#000000",
    "newsletter_popup_background_color": "#ffffff",
    "footer_border_color": "#000000",
    "footer_text_color": "#000000",
    "headline_footer_text_color": "#000000",
    "footer_link_color": "#000000",
    "footer_link_color_hover": "#9c9c9c",
    "footer_button": "#000000",
    "footer_button_hover": "#707070",
    "social_icons_color": "#000000",
    "social_icons_color_hover": "#707070",
    "footer_color": "#f2f2f2",
    "password_page_text_color": "#ffffff",
    "password_page_background_color": "#000000",
    "password_page_footer_text_color": "#000000",
    "password_page_footer_link_color": "#9c9c9c",
    "logo__font": "helvetica_n4",
    "logo_font_style": "uppercase",
    "logo_font_size": 42,
    "headline__font": "playfair_display_n4",
    "headline_font_style": "none",
    "headline_alignment": "center",
    "headline_font_size": 25,
    "headline_letter_spacing": 1,
    "nav__font": "helvetica_n4",
    "nav_font_style": "uppercase",
    "nav_font_size": 13,
    "nav_letter_spacing": 1,
    "nav_dropdown_weight": "normal",
    "nav_dropdown_font_style": "uppercase",
    "nav_dropdown_font_size": 14,
    "top_bar__font": "helvetica_n4",
    "top_bar_font_style": "none",
    "top_bar_font_size": 13,
    "top_bar_letter_spacing": 0,
    "display_text_shadow": false,
    "regular__font": "helvetica_n4",
    "regular_font_style": "none",
    "regular_font_size": 15,
    "footer_font_size": 13,
    "slideshow_headline__font": "helvetica_n4",
    "slideshow_headline_size": 42,
    "slideshow_subtitle__font": "helvetica_n4",
    "slideshow_subtitle_font_style": "none",
    "slideshow_subtitle_size": 19,
    "align_height": true,
    "collection_height": 260,
    "collection_price_position": "center",
    "mobile_products_per_row": "2",
    "collection_border": true,
    "collection_secondary_image": true,
    "display_vendor_collection": true,
    "sale_banner_enabled": true,
    "collection_swatches": false,
    "display_product_quantity": true,
    "limit_quantity": true,
    "display_inventory_left": false,
    "product_form_style": "dropdown",
    "free_price_text": "FREE",
    "show_payment_button": false,
    "notify_me_form": false,
    "notify_me_richtext": "<p>Please notify me when this product is back in stock:<\/p>",
    "enable_shopify_review_comments": false,
    "review_position": "bottom",
    "enable_shopify_collection_badges": true,
    "enable_shopify_product_badges": true,
    "quick_shop_enabled": true,
    "newsletter_popup_mobile": false,
    "display_last_name": false,
    "rounded_social_icons": true,
    "twitter_link": "",
    "facebook_link": "https:\/\/www.facebook.com\/BeGenkiShop\/",
    "youtube_link": "",
    "vimeo_link": "",
    "pinterest_link": "",
    "tumblr_link": "",
    "instagram_link": "https:\/\/www.instagram.com\/be.genki.shop\/",
    "linkedin_link": "",
    "flickr_link": "",
    "email_link": "sam@begenki.com.au",
    "disqus_enabled": false,
    "disqus_shortname": "",
    "cart_action": "ajax",
    "display_tos_checkbox": false,
    "show_shipping_calculator": false,
    "shipping_calculator_default_country": "Australia",
    "currency_format": "money_format",
    "search_option": "product,page,article",
    "search_to_display": 10,
    "organization_logo": "shopify:\/\/shop_images\/logo-1200x628.jpg",
    "favicon": "",
    "checkout_header_image": "shopify:\/\/shop_images\/SS-petals-light.jpg",
    "checkout_logo_image": "shopify:\/\/shop_images\/logo-1200x628.jpg",
    "checkout_logo_position": "left",
    "checkout_logo_size": "small",
    "checkout_body_background_image": "",
    "checkout_body_background_color": "#fffefc",
    "checkout_input_background_color_mode": "white",
    "checkout_sidebar_background_image": "",
    "checkout_sidebar_background_color": "#ffffff",
    "checkout_heading_font": "Helvetica Neue",
    "checkout_body_font": "Helvetica Neue",
    "checkout_accent_color": "#707070",
    "checkout_button_color": "#707070",
    "checkout_error_color": "#fc1111",
    "display_social_buttons": true,
    "header_social_icons": true,
    "enable_social_links": true,
    "size_chart": "",
    "product_slideshow_animation": "fade",
    "slideshow_speed": 6,
    "thumbnail_position": "right-thumbnails",
    "product_description_position": "top",
    "description_words": "15",
    "newsletter_bg": "",
    "newsletter_bg_stretched": false,
    "newsletter_popup_link": "",
    "use_logo": false,
    "logo_width": "360",
    "logo_alignment": "center",
    "main_linklist": "main-menu",
    "menu_alignment": "center",
    "nav_border": "double",
    "nav_separator": "solid",
    "featured_content_page": "",
    "secondary_btn_color": "#f2f2f2",
    "use_custom_bg_image": false,
    "custom_bg_image_select": "custom_bg.png",
    "use_custom_top_bar_image": false,
    "custom_top_bar_image_select": "custom_top_bar.png",
    "use_newsletter_bg_image": false,
    "search_box_top_bar": true,
    "fix_top_bar": true,
    "top_bar_linklist": "",
    "slideshow_enabled": true,
    "slideshow_animation": "fade",
    "slideshow_stretch": true,
    "slideshow_width_narrow": false,
    "slideshow_headline_weight": "normal",
    "video_embed": "",
    "video_width": "set",
    "video_width_px": "",
    "video_position": "1",
    "slideshow_1_enabled": true,
    "image_1_alt_text": "The Responsive Shopify Theme",
    "image_1_headline": "The Responsive Shopify Theme",
    "image_1_subtitle": "",
    "image_1_text_color": "#ffffff",
    "image_1_text_align": "center",
    "image_1_button_text": "",
    "image_1_link": "",
    "slideshow_2_enabled": true,
    "image_2_text_color": "#ffffff",
    "image_2_text_align": "center",
    "image_2_button_text": "",
    "image_2_link": "",
    "slideshow_3_enabled": false,
    "image_3_alt_text": "",
    "image_3_headline": "",
    "image_3_subtitle": "",
    "image_3_text_color": "#ffffff",
    "image_3_text_align": "center",
    "image_3_button_text": "",
    "image_3_link": "",
    "slideshow_4_enabled": false,
    "image_4_alt_text": "",
    "image_4_headline": "",
    "image_4_subtitle": "",
    "image_4_text_color": "#ffffff",
    "image_4_text_align": "center",
    "image_4_button_text": "",
    "image_4_link": "",
    "slideshow_5_enabled": false,
    "image_5_alt_text": "",
    "image_5_headline": "",
    "image_5_subtitle": "",
    "image_5_text_color": "#ffffff",
    "image_5_text_align": "center",
    "image_5_button_text": "",
    "image_5_link": "",
    "slideshow_6_enabled": false,
    "image_6_alt_text": "",
    "image_6_headline": "",
    "image_6_subtitle": "",
    "image_6_text_color": "#ffffff",
    "image_6_text_align": "center",
    "image_6_button_text": "",
    "image_6_link": "",
    "banner_1_enabled": false,
    "banner_1_text_color": "#ffffff",
    "banner_1_text_align": "center",
    "banner_2_enabled": false,
    "banner_2_text_color": "#ffffff",
    "banner_2_text_align": "center",
    "banner_3_enabled": false,
    "banner_3_text_color": "#ffffff",
    "banner_3_text_align": "center",
    "homepage": "",
    "homepage2": "",
    "homepage3": "",
    "homepage4": "",
    "frontpage_collections_per_row": "3",
    "frontpage_collections_title": true,
    "collection_title": true,
    "frontpage_collection": "",
    "frontpage_products_per_row": "4",
    "frontpage_display_description": true,
    "frontpage_product_stagger": false,
    "blog_widget_select": "",
    "home_page_articles": "3",
    "product_breadcrumb": true,
    "display_tags": true,
    "display_type": true,
    "display_vendor": true,
    "display_collections": false,
    "display_sku": false,
    "show_product_recommendations": true,
    "product_thumbs": true,
    "product_images_position": "left",
    "products_per_row": "3",
    "pagination_limit": "48",
    "collection_breadcrumb": true,
    "faceted_filters": true,
    "collection_sort": true,
    "quick_shop_full_description": false,
    "collection_sidebar": false,
    "collection_sidebar_linklist": "",
    "collection_sidebar_linklist2": "",
    "filter_by_category": false,
    "filter_by_tag": false,
    "collection_sidebar_products": false,
    "collection_sidebar_vendors": false,
    "collection_sidebar_page": "",
    "tax_included": false,
    "display_special_instructions": false,
    "display_social_buttons_blog": true,
    "blog_tags": true,
    "blog_content_page": "",
    "newsletter_enabled": true,
    "newsletter_system": "shopify",
    "mailchimp_link": "",
    "footer_linklist_2": "footer",
    "footer_linklist_1": "main-menu",
    "copyright_text": "",
    "use_paypal": false,
    "use_bitcoin": false,
    "use_visa": false,
    "use_visaelectron": false,
    "use_mastercard": false,
    "use_amex": false,
    "use_cirrus": false,
    "use_delta": false,
    "use_discover": false,
    "use_western_union": false,
    "newsletter_popup_page": "",
    "checkout_use_header_image": false,
    "checkout_banner_background_color": "#222222",
    "checkout_logo": "",
    "checkout_headline": "",
    "checkout_call_to_action_color": "#DD4B39",
    "shop_use_content_bg_color": "1",
    "shop_content_bg_color": "#bb3131",
    "blog_widget": true,
    "checkout_background_color": "#ffffff",
    "checkout_background_image": false,
    "checkout_text_color": "#404040",
    "checkout_headline_color": "#404040",
    "collection_top_sidebar_page": "",
    "newsletter_success_text": "Thank you for joining our mailing list!",
    "newsletter_description": "Subscribe to our newsletter and always be the first to hear about what is happening.",
    "display_borders": true,
    "header_share_button": false,
    "product_zoom_enabled": false,
    "product_thumbnails_position": "side",
    "shipping_calculator_heading": "Shipping rates calculator",
    "shipping_calculator_submit_button_label": "Calculate shipping rates",
    "shipping_calculator_submit_button_label_disabled": "Calculating...",
    "quick_shop_text": "Quick Shop",
    "sections": {
      "header": {
        "type": "header",
        "blocks": {
          "1535002703687": {
            "type": "menu",
            "settings": {
              "mega_menu_title": "",
              "mega_linklist": "",
              "column_title": "Catalog",
              "column_text": "",
              "column_link": "",
              "column_position": "first_column",
              "mega_text": "",
              "mega_text_url": "",
              "mega_menu_banner_bg": "#ffffff",
              "mega_menu_banner_text": "#404040"
            }
          }
        },
        "block_order": [
          "1535002703687"
        ],
        "settings": {
          "show_announcement_message": true,
          "announcement_homepage_only": false,
          "announcement_message": "FREE EXPRESS POST SHIPPING FOR ORDERS $250 AND OVER WITHIN AUSTRALIA",
          "announcement_link": "",
          "announcement_color": "#ffffff",
          "announcement_text_color": "#707070",
          "show_locale_selector": true,
          "show_currency_selector": true,
          "fix_top_bar": true,
          "search_box_top_bar": true,
          "top_bar_linklist": "",
          "phone_number": "",
          "logo": "shopify:\/\/shop_images\/logo-720.jpg",
          "logo_width": 180,
          "logo_alignment": "center",
          "logo_mobile": "shopify:\/\/shop_images\/logo-410.jpg",
          "header_social_icons": true,
          "main_linklist": "main-menu",
          "menu_alignment": "center",
          "nav_border": "none",
          "nav_separator": "solid"
        }
      },
      "footer": {
        "type": "footer",
        "settings": {
          "footer_linklist_2": "footer",
          "footer_linklist_1": "",
          "title": "GENKI",
          "footer_content_right": "<p>A Japanese word that describes the holistic feeling of being well. Happy, healthy and harmonious in body, mind and spirit. <\/p><p><\/p><p>Our curated collection of the best in natural health and organic beauty is here to help you look and feel more 'genki'.<\/p>",
          "footer_content_page": "",
          "footer_alignment": "center",
          "footer_newsletter": true,
          "newsletter_heading": "RECEIVE OUR BI-MONTHLY NEWSLETTER",
          "newsletter_richtext": "<p>Receive health and beauty tips + subscriber-only sale announcements. <\/p>",
          "display_first_name": true,
          "display_last_name": false,
          "footer_social_icons": true,
          "display_payment_methods": true,
          "copyright_text": "INTEGRITY. PURITY. PERFORMANCE.",
          "show_locale_selector": false,
          "show_currency_selector": false
        }
      }
    },
    "content_for_index": [],
    "blocks": {
      "7570552984445421165": {
        "type": "shopify:\/\/apps\/yotpo-product-reviews-photos\/blocks\/settings\/eb7dfd7d-db44-4334-bc49-c893b51b36cf",
        "disabled": false,
        "settings": {}
      },
      "8962992520437913685": {
        "type": "shopify:\/\/apps\/yotpo-loyalty-rewards\/blocks\/loader-app-embed-block\/2f9660df-5018-4e02-9868-ee1fb88d6ccd",
        "disabled": false,
        "settings": {
          "inject_modules_loader": true,
          "inject_sdk_loader": true
        }
      },
      "11349500561483629931": {
        "type": "shopify:\/\/apps\/restock-back-in-stock-alerts\/blocks\/app-embed\/b399b727-6c85-44fc-9e21-63114bd72054",
        "disabled": false,
        "settings": {}
      },
      "855628211100114053": {
        "type": "shopify:\/\/apps\/klaviyo-email-marketing-sms\/blocks\/klaviyo-onsite-embed\/2632fe16-c075-4321-a88b-50b567f42507",
        "disabled": false,
        "settings": {}
      }
    }
  }
}