{
  "wrapper": "div.shopify-section--product-quickshop-template",
  "sections": {
    "main": {
      "type": "quickshop",
      "blocks": {
        "93120ca7-91cd-49ed-9c11-d2fe0b1604c5": {
          "type": "vendor",
          "settings": {}
        },
        "title": {
          "type": "title",
          "settings": {
            "show_border": true
          }
        },
        "price": {
          "type": "price",
          "settings": {}
        },
        "description": {
          "type": "description",
          "settings": {
            "show_border": true,
            "description_words": "30"
          }
        },
        "form": {
          "type": "form",
          "settings": {}
        }
      },
      "block_order": [
        "93120ca7-91cd-49ed-9c11-d2fe0b1604c5",
        "title",
        "price",
        "description",
        "form"
      ],
      "settings": {
        "display_thumbnails": true,
        "gallery_arrows": false,
        "activate_zoom": true,
        "slideshow_speed": 0,
        "slideshow_transition": "fade",
        "thumbnail_position": "bottom-thumbnails",
        "enable_thumbnail_slider": true,
        "video_looping": false
      }
    }
  },
  "order": [
    "main"
  ]
}